^C:\USERS\VSUBRAHM\SOURCE\REPOS\VENDINGMACHINE\VENDINGMACHINE\PCH.CPP
/c /ZI /JMC /nologo /W3 /WX- /diagnostics:classic /sdl /Od /Oy- /D WIN32 /D _DEBUG /D _CONSOLE /D _UNICODE /D UNICODE /Gm- /EHsc /RTC1 /MDd /GS /fp:precise /permissive- /Zc:wchar_t /Zc:forScope /Zc:inline /Yc"pch.h" /Fp"DEBUG\VENDINGMACHINE.PCH" /Fo"DEBUG\\" /Fd"DEBUG\VC141.PDB" /Gd /TP /analyze- /FC C:\USERS\VSUBRAHM\SOURCE\REPOS\VENDINGMACHINE\VENDINGMACHINE\PCH.CPP
^C:\USERS\VSUBRAHM\SOURCE\REPOS\VENDINGMACHINE\VENDINGMACHINE\PRODUCT.CPP
/c /ZI /JMC /nologo /W3 /WX- /diagnostics:classic /sdl /Od /Oy- /D WIN32 /D _DEBUG /D _CONSOLE /D _UNICODE /D UNICODE /Gm- /EHsc /RTC1 /MDd /GS /fp:precise /permissive- /Zc:wchar_t /Zc:forScope /Zc:inline /Yu"pch.h" /Fp"DEBUG\VENDINGMACHINE.PCH" /Fo"DEBUG\\" /Fd"DEBUG\VC141.PDB" /Gd /TP /analyze- /FC C:\USERS\VSUBRAHM\SOURCE\REPOS\VENDINGMACHINE\VENDINGMACHINE\PRODUCT.CPP
^C:\USERS\VSUBRAHM\SOURCE\REPOS\VENDINGMACHINE\VENDINGMACHINE\ADMINSTRATORMACHINE.CPP
/c /ZI /JMC /nologo /W3 /WX- /diagnostics:classic /sdl /Od /Oy- /D WIN32 /D _DEBUG /D _CONSOLE /D _UNICODE /D UNICODE /Gm- /EHsc /RTC1 /MDd /GS /fp:precise /permissive- /Zc:wchar_t /Zc:forScope /Zc:inline /Yu"pch.h" /Fp"DEBUG\VENDINGMACHINE.PCH" /Fo"DEBUG\\" /Fd"DEBUG\VC141.PDB" /Gd /TP /analyze- /FC C:\USERS\VSUBRAHM\SOURCE\REPOS\VENDINGMACHINE\VENDINGMACHINE\ADMINSTRATORMACHINE.CPP
^C:\USERS\VSUBRAHM\SOURCE\REPOS\VENDINGMACHINE\VENDINGMACHINE\VENDINGMACHINE.CPP
/c /ZI /JMC /nologo /W3 /WX- /diagnostics:classic /sdl /Od /Oy- /D WIN32 /D _DEBUG /D _CONSOLE /D _UNICODE /D UNICODE /Gm- /EHsc /RTC1 /MDd /GS /fp:precise /permissive- /Zc:wchar_t /Zc:forScope /Zc:inline /Yu"pch.h" /Fp"DEBUG\VENDINGMACHINE.PCH" /Fo"DEBUG\\" /Fd"DEBUG\VC141.PDB" /Gd /TP /analyze- /FC C:\USERS\VSUBRAHM\SOURCE\REPOS\VENDINGMACHINE\VENDINGMACHINE\VENDINGMACHINE.CPP
^C:\USERS\VSUBRAHM\SOURCE\REPOS\VENDINGMACHINE\VENDINGMACHINE\MACHINE.CPP
/c /ZI /JMC /nologo /W3 /WX- /diagnostics:classic /sdl /Od /Oy- /D WIN32 /D _DEBUG /D _CONSOLE /D _UNICODE /D UNICODE /Gm- /EHsc /RTC1 /MDd /GS /fp:precise /permissive- /Zc:wchar_t /Zc:forScope /Zc:inline /Yu"pch.h" /Fp"DEBUG\VENDINGMACHINE.PCH" /Fo"DEBUG\\" /Fd"DEBUG\VC141.PDB" /Gd /TP /analyze- /FC C:\USERS\VSUBRAHM\SOURCE\REPOS\VENDINGMACHINE\VENDINGMACHINE\MACHINE.CPP
